projects/project1/trace.vcd
$version Generated by VerilatedVcd $end
$timescale 1ps $end
 $scope module TOP $end
  $scope module testbench $end
   $var wire 1 b clk $end
   $var wire 1 c reset $end
   $scope module dut $end
    $var wire 1 b clk $end
    $var wire 1 c reset $end
    $var wire 32 ? pc_current [31:0] $end
    $var wire 32 d pc_next [31:0] $end
    $var wire 32 # instr [31:0] $end
    $var wire 7 $ opcode [6:0] $end
    $var wire 5 % rd [4:0] $end
    $var wire 5 & rs1 [4:0] $end
    $var wire 5 ' rs2 [4:0] $end
    $var wire 3 ( funct3 [2:0] $end
    $var wire 7 ) funct7 [6:0] $end
    $var wire 1 * RegWrite $end
    $var wire 1 + MemRead $end
    $var wire 1 , MemWrite $end
    $var wire 1 - Branch $end
    $var wire 1 . Jump $end
    $var wire 2 / ResultSel [1:0] $end
    $var wire 2 0 ALUSrc [1:0] $end
    $var wire 3 1 ImmSel [2:0] $end
    $var wire 4 2 ALUControl [3:0] $end
    $var wire 32 3 reg_read1 [31:0] $end
    $var wire 32 4 reg_read2 [31:0] $end
    $var wire 32 e reg_write_data [31:0] $end
    $var wire 32 5 imm_value [31:0] $end
    $var wire 32 3 alu_op1 [31:0] $end
    $var wire 32 6 alu_op2 [31:0] $end
    $var wire 32 7 alu_result [31:0] $end
    $var wire 1 8 alu_zero $end
    $var wire 32 f mem_read_data [31:0] $end
    $var wire 1 9 branch_taken $end
    $var wire 32 @ pc_plus4 [31:0] $end
    $var wire 32 : branch_target [31:0] $end
    $var wire 32 g next_after_branch [31:0] $end
    $var wire 32 : jump_target [31:0] $end
    $scope module u_alu $end
     $var wire 32 3 op1 [31:0] $end
     $var wire 32 6 op2 [31:0] $end
     $var wire 4 2 ALUControl [3:0] $end
     $var wire 32 7 result [31:0] $end
     $var wire 1 8 zero $end
    $upscope $end
    $scope module u_alu_src_mux $end
     $var wire 1 ; sel $end
     $var wire 32 4 a [31:0] $end
     $var wire 32 5 b [31:0] $end
     $var wire 32 6 y [31:0] $end
    $upscope $end
    $scope module u_branch $end
     $var wire 1 - branch_en $end
     $var wire 3 ( funct3 [2:0] $end
     $var wire 32 3 rs1_val [31:0] $end
     $var wire 32 4 rs2_val [31:0] $end
     $var wire 1 9 branch_taken $end
     $var wire 1 < cond_met $end
    $upscope $end
    $scope module u_branch_mux $end
     $var wire 1 9 sel $end
     $var wire 32 @ a [31:0] $end
     $var wire 32 : b [31:0] $end
     $var wire 32 g y [31:0] $end
    $upscope $end
    $scope module u_branch_target $end
     $var wire 32 ? a [31:0] $end
     $var wire 32 5 b [31:0] $end
     $var wire 32 : sum [31:0] $end
    $upscope $end
    $scope module u_ctrl $end
     $var wire 7 $ opcode [6:0] $end
     $var wire 3 ( funct3 [2:0] $end
     $var wire 7 ) funct7 [6:0] $end
     $var wire 1 * RegWrite $end
     $var wire 1 + MemRead $end
     $var wire 1 , MemWrite $end
     $var wire 2 / ResultSel [1:0] $end
     $var wire 2 0 ALUSrc [1:0] $end
     $var wire 3 1 ImmSel [2:0] $end
     $var wire 4 2 ALUControl [3:0] $end
     $var wire 1 - Branch $end
     $var wire 1 . Jump $end
     $var wire 1 = R $end
     $var wire 1 > op_0010011 $end
     $var wire 1 + lw $end
     $var wire 1 , sw $end
     $var wire 1 - B $end
     $var wire 1 . jal $end
    $upscope $end
    $scope module u_dmem $end
     $var wire 1 b clk $end
     $var wire 1 , MemWrite $end
     $var wire 1 + MemRead $end
     $var wire 32 7 addr [31:0] $end
     $var wire 32 4 write_data [31:0] $end
     $var wire 32 f read_data [31:0] $end
     $var wire 32 h i [31:0] $end
    $upscope $end
    $scope module u_imem $end
     $var wire 32 ? addr [31:0] $end
     $var wire 32 # instr [31:0] $end
     $var wire 32 i i [31:0] $end
    $upscope $end
    $scope module u_imm $end
     $var wire 32 # instr [31:0] $end
     $var wire 3 1 ImmSel [2:0] $end
     $var wire 32 5 imm_out [31:0] $end
    $upscope $end
    $scope module u_ipsr $end
     $var wire 32 # instr [31:0] $end
     $var wire 7 $ opcode [6:0] $end
     $var wire 5 % rd [4:0] $end
     $var wire 5 & rs1 [4:0] $end
     $var wire 5 ' rs2 [4:0] $end
     $var wire 3 ( funct3 [2:0] $end
     $var wire 7 ) funct7 [6:0] $end
    $upscope $end
    $scope module u_jump_mux $end
     $var wire 1 . sel $end
     $var wire 32 g a [31:0] $end
     $var wire 32 : b [31:0] $end
     $var wire 32 d y [31:0] $end
    $upscope $end
    $scope module u_jump_target $end
     $var wire 32 ? a [31:0] $end
     $var wire 32 5 b [31:0] $end
     $var wire 32 : sum [31:0] $end
    $upscope $end
    $scope module u_pc $end
     $var wire 1 b clk $end
     $var wire 1 c reset $end
     $var wire 32 d pc_in [31:0] $end
     $var wire 32 ? pc_out [31:0] $end
    $upscope $end
    $scope module u_pc_plus4 $end
     $var wire 32 ? a [31:0] $end
     $var wire 32 j b [31:0] $end
     $var wire 32 @ sum [31:0] $end
    $upscope $end
    $scope module u_regs $end
     $var wire 1 b clk $end
     $var wire 1 c reset $end
     $var wire 1 * RegWrite $end
     $var wire 5 & rs1 [4:0] $end
     $var wire 5 ' rs2 [4:0] $end
     $var wire 5 % rd [4:0] $end
     $var wire 32 e write_data [31:0] $end
     $var wire 32 3 read_data1 [31:0] $end
     $var wire 32 4 read_data2 [31:0] $end
     $var wire 32 A regs[0] [31:0] $end
     $var wire 32 B regs[1] [31:0] $end
     $var wire 32 C regs[2] [31:0] $end
     $var wire 32 D regs[3] [31:0] $end
     $var wire 32 E regs[4] [31:0] $end
     $var wire 32 F regs[5] [31:0] $end
     $var wire 32 G regs[6] [31:0] $end
     $var wire 32 H regs[7] [31:0] $end
     $var wire 32 I regs[8] [31:0] $end
     $var wire 32 J regs[9] [31:0] $end
     $var wire 32 K regs[10] [31:0] $end
     $var wire 32 L regs[11] [31:0] $end
     $var wire 32 M regs[12] [31:0] $end
     $var wire 32 N regs[13] [31:0] $end
     $var wire 32 O regs[14] [31:0] $end
     $var wire 32 P regs[15] [31:0] $end
     $var wire 32 Q regs[16] [31:0] $end
     $var wire 32 R regs[17] [31:0] $end
     $var wire 32 S regs[18] [31:0] $end
     $var wire 32 T regs[19] [31:0] $end
     $var wire 32 U regs[20] [31:0] $end
     $var wire 32 V regs[21] [31:0] $end
     $var wire 32 W regs[22] [31:0] $end
     $var wire 32 X regs[23] [31:0] $end
     $var wire 32 Y regs[24] [31:0] $end
     $var wire 32 Z regs[25] [31:0] $end
     $var wire 32 [ regs[26] [31:0] $end
     $var wire 32 \ regs[27] [31:0] $end
     $var wire 32 ] regs[28] [31:0] $end
     $var wire 32 ^ regs[29] [31:0] $end
     $var wire 32 _ regs[30] [31:0] $end
     $var wire 32 ` regs[31] [31:0] $end
     $var wire 32 a i [31:0] $end
    $upscope $end
   $upscope $end
  $upscope $end
 $upscope $end
$enddefinitions $end


#0
b00000000000000000000000000010011 #
b0010011 $
b00000 %
b00000 &
b00000 '
b000 (
b0000000 )
1*
0+
0,
0-
0.
b00 /
b01 0
b000 1
b0000 2
b00000000000000000000000000000000 3
b00000000000000000000000000000000 4
b00000000000000000000000000000000 5
b00000000000000000000000000000000 6
b00000000000000000000000000000000 7
18
09
b00000000000000000000000000000000 :
1;
1<
0=
1>
b00000000000000000000000000000000 ?
b00000000000000000000000000000100 @
b00000000000000000000000000000000 A
b00000000000000000000000000000000 B
b00000000000000000000000000000000 C
b00000000000000000000000000000000 D
b00000000000000000000000000000000 E
b00000000000000000000000000000000 F
b00000000000000000000000000000000 G
b00000000000000000000000000000000 H
b00000000000000000000000000000000 I
b00000000000000000000000000000000 J
b00000000000000000000000000000000 K
b00000000000000000000000000000000 L
b00000000000000000000000000000000 M
b00000000000000000000000000000000 N
b00000000000000000000000000000000 O
b00000000000000000000000000000000 P
b00000000000000000000000000000000 Q
b00000000000000000000000000000000 R
b00000000000000000000000000000000 S
b00000000000000000000000000000000 T
b00000000000000000000000000000000 U
b00000000000000000000000000000000 V
b00000000000000000000000000000000 W
b00000000000000000000000000000000 X
b00000000000000000000000000000000 Y
b00000000000000000000000000000000 Z
b00000000000000000000000000000000 [
b00000000000000000000000000000000 \
b00000000000000000000000000000000 ]
b00000000000000000000000000000000 ^
b00000000000000000000000000000000 _
b00000000000000000000000000000000 `
b00000000000000000000000000000000 a
0b
0c
b00000000000000000000000000000100 d
b00000000000000000000000000000000 e
b00000000000000000000000000000000 f
b00000000000000000000000000000100 g
b00000000000000000000000100000000 h
b00000000000000000000000100000000 i
b00000000000000000000000000000100 j
#5
b00000000000000000000000000000100 :
b00000000000000000000000000000100 ?
b00000000000000000000000000001000 @
1b
b00000000000000000000000000001000 d
b00000000000000000000000000001000 g
#10
b00000000011100000000000100010011 #
b00010 %
b00111 '
b00000000000000000000000000000111 5
b00000000000000000000000000000111 6
b00000000000000000000000000000111 7
08
b00000000000000000000000000001011 :
0b
1c
b00000000000000000000000000000111 e
#15
b00000000010100000000000010010011 #
b00001 %
b00101 '
b00000000000000000000000000000101 5
b00000000000000000000000000000101 6
b00000000000000000000000000000101 7
b00000000000000000000000000000101 :
b00000000000000000000000000000000 ?
b00000000000000000000000000000100 @
b00000000000000000000000000100000 a
1b
b00000000000000000000000000000100 d
b00000000000000000000000000000101 e
b00000000000000000000000000000100 g
#20
0b
0c
#25
b00000000011100000000000100010011 #
b00010 %
b00111 '
b00000000000000000000000000000111 5
b00000000000000000000000000000111 6
b00000000000000000000000000000111 7
b00000000000000000000000000001011 :
b00000000000000000000000000000100 ?
b00000000000000000000000000001000 @
b00000000000000000000000000000101 B
1b
b00000000000000000000000000001000 d
b00000000000000000000000000000111 e
b00000000000000000000000000001000 g
#30
0b
#35
b00000000000100001000010001100011 #
b1100011 $
b01000 %
b00001 &
b00001 '
0*
1-
b11 /
b00 0
b010 1
b1010 2
b00000000000000000000000000000101 3
b00000000000000000000000000000101 4
b00000000000000000000000000001000 5
b00000000000000000000000000000101 6
b00000000000000000000000000000000 7
18
19
b00000000000000000000000000010000 :
0;
0>
b00000000000000000000000000001000 ?
b00000000000000000000000000001100 @
b00000000000000000000000000000111 C
1b
b00000000000000000000000000010000 d
b00000000000000000000000000000000 e
b00000000000000000000000000010000 g
#40
0b
#45
b00000000001000001000000110110011 #
b0110011 $
b00011 %
b00010 '
1*
0-
b00 /
b101 1
b0000 2
b00000000000000000000000000000111 4
b00000000000000000000000000000000 5
b00000000000000000000000000000111 6
b00000000000000000000000000001100 7
08
09
0<
1=
b00000000000000000000000000010000 ?
b00000000000000000000000000010100 @
1b
b00000000000000000000000000010100 d
b00000000000000000000000000001100 e
b00000000000000000000000000010100 g
#50
0b
#55
b00000000001100000010000000100011 #
b0100011 $
b00000 %
b00000 &
b00011 '
b010 (
0*
1,
b01 0
b001 1
b00000000000000000000000000000000 3
b00000000000000000000000000001100 4
b00000000000000000000000000000000 6
b00000000000000000000000000000000 7
18
b00000000000000000000000000010100 :
1;
1<
0=
b00000000000000000000000000010100 ?
b00000000000000000000000000011000 @
b00000000000000000000000000001100 D
1b
b00000000000000000000000000011000 d
b00000000000000000000000000000000 e
b00000000000000000000000000000101 f
b00000000000000000000000000011000 g
#60
0b
#65
b00000000000000000010010000000011 #
b0000011 $
b01000 %
b00000 '
1*
1+
0,
b01 /
b000 1
b00000000000000000000000000000000 4
b00000000000000000000000000011000 :
0<
b00000000000000000000000000011000 ?
b00000000000000000000000000011100 @
1b
b00000000000000000000000000011100 d
b00000000000000000000000000001100 e
b00000000000000000000000000001100 f
b00000000000000000000000000011100 g
#70
0b
#75
b00000000000000000000000000010011 #
b0010011 $
b00000 %
b000 (
0+
b00 /
b00000000000000000000000000011100 :
1<
1>
b00000000000000000000000000011100 ?
b00000000000000000000000000100000 @
b00000000000000000000000000001100 I
1b
b00000000000000000000000000100000 d
b00000000000000000000000000000000 e
b00000000000000000000000000000000 f
b00000000000000000000000000100000 g
#80
0b
#85
b00000000000000000000000000100000 :
b00000000000000000000000000100000 ?
b00000000000000000000000000100100 @
1b
b00000000000000000000000000100100 d
b00000000000000000000000000100100 g
